id	id_prop	alignment	comment	depth	thread_id	last_comment_in_thread	upvote	downvote	Topic	lan	time
comment_4622	96	Against	Dit idee is ondoordacht en onuitvoerbaar. We kunnen onze samenleving niet afsluiten voor mensen die gevaar lopen. Zij hebben onze hulp nodig en daarnaast hebben wij hen ook nodig. Het idee dat onze samenleving klaar is gebaseerd op de landen die er nu zijn is belachelijk. Alles verandert, dat gebeurd nu, dat gebeurde honderd jaar geleden en daarvoor. De wereld heeft elkaar nodig en moet stoppen om elkaar te zien als anders en samen komen. 	0.0		False	3	8	Migration	nl	2021-05-09T16:13:25+02:00
comment_95569	19837	Against	Juist de heiligverklaring van utopische universele mensenrechten, waaronder het recht van mensen aan de andere kant van de wereld om hier, na illegale entree en passage van vele veilige landen, asiel aan te vragen, voorkomt een verantwoorde regulering en die ‘pull factor’ leidt tot onnodige slachtoffers. 	0.0	comment_95569	True	1	1	Migration	nl	2021-09-19T18:07:23+02:00
comment_16009	4926	Against	"Ik vraag mij echt af waar u dit allemaal vandaan haalt... zo ongeveer niets hiervan is historisch correct.  Bovendien is er geen sprake van islamisering van Europa (er wonen nog geen 10% moslims in de EU, hebt u daar echt schrik van?) noch van het de mond snoeren van ""afwijkende"" meningen (met alle respect, maar uw racistische mening is verre van afwijkend, helaas, u bent wellicht in de meerderheid - en vindt u dat u de mond gesnoerd wordt alleen omdat anderen niet met u akkoord zijn?  Beetje eerlijk blijven toch).
En wat de kern van uw voorstel betreft: de overgrote meerderheid van de vluchtelingen wordt inderdaad in de omgeving opgevangen: Libanon, een land zoals België, vangt meer dan een miljoen Syrische vluchtelingen op.  Informeer u misschien eerst voor u uw racistische onzin spuit."	0.0	comment_16009	True	1	0	Migration	nl	2021-05-20T11:55:14+02:00
comment_22609	4755	In favor	Indien dit klopt steun ik dit. Het is ook in lijn met een solidariteit tussen de lidstaten in de verdeling van asiel zoekers. Ik zou wel een zekere mogelijkheid tot inspraak geven. Er zijn namelijk misschien beperkte geldige redenen dat men beter is in een bepaald land, maar na goedkeuren. Wat zijn echter de oorzaken van dit 'shoppen?'	0.0	comment_22609	True	0	0	Migration	nl	2021-05-28T23:50:40+02:00
comment_205954	238064	In favor	Een goed idee.	0.0	comment_205954	True	1	0	Migration	nl	2022-02-08T15:59:24+01:00
comment_22145	7378	In favor	Lijkt mij een goed praktisch en toepasbaar idee.  Ook in België lopen er een paar proefprojecten  van kleine installaties. Dat doet mij  denken aan de proefprojecten met golfslagenergie.  Beide energieopwekkingen zijn duurzaam en zijn altijd beschikbaar en niet afhankelijk van wind of zon.  Momenteel is er enkel nog de vraag is het economisch genoeg is, en voor de golfslagenergie kan het stormen doorstaan?  Maar door verbeterde technologie kan dit ongetwijfeld opgelost worden zodat het economisch verantwoord wordt.	0.0		False	1	0	GreenDeal	nl	2021-05-28T13:00:09+02:00
comment_108	64	Against	We moeten absoluut vermijden nog kernafval te creëren.	0.0		False	12	23	GreenDeal	nl	2021-04-19T16:29:44+02:00
comment_138	64	In favor	Nucleair afval is zeker een probleem, maar de hoeveelheden zijn enorm klein in vergelijking met de hoeveelheid energie die kerncentrales opwekken. Kernafval kan verder verwerkt worden zoals in het SCK in mol onderzocht wordt. Het grootste probleem met dat afval is is onze emoties, we (publieke opinie) willen pas radioactief afval weggooien wanneer die volledig neutraal zijn. Terwijl dat heel de aarde en ook mensen radioactieve straling uitzenden. Zo'n grote kerncentrales (huidige) zijn misschien niet zo'n goed idee. Heel veel kleinere zou een beter idee zijn om makkelijker te kunnen schakelen om complementair te zijn met zon, wind en water energie.	0.0		False	18	6	GreenDeal	nl	2021-04-19T17:35:06+02:00
comment_95272	64	In favor	De Europese Commissie is niet geloofwaardig met haar klimaatbeleid als zij kernenergie niet op dezelfde manier stimuleert als wind-en zonne-energie. Nederland is dichtbevolkt en heeft een enorm gebrek aan ruimte. Zonder kernenergie is CO2-neutraliteit volstrekt onmogelijk. Duitsland moet haar verzet opgeven want dat is zeer schadelijk voor Nederland. De Europese Commissie moet haar verantwoordelijkheid nemen en zorgen voor een ‘level playing field’ zodat kernenergie waar nodig in de energiemix  kan worden opgenomen.	0.0	comment_95272	True	1	0	GreenDeal	nl	2021-09-18T21:24:32+02:00
comment_123652	64	In favor	Helemaal eens met de stelling. Toegevoegd kan worden dat kleinere en middelgrote reactoren ontwikkeld worden die modulair gebouwd kunnen worden. In o.m. China en Amerika is men al vergevorderd en zijn er modellen die hun eigen afval als brandstof benutten. De Europese Commissie faalt ernstig door kernenergie nog steeds niet op te nemen in de taxonomielijst omdat Duitsland daar bezwaar tegen heeft. Duitsland dupeert Nederland. De Commissie faalt ook met de Green Deal nu blijkt dat daardoor de landbouwproduktie fors omlaag gaat terwijl de wereldbevolking sterk stijgt.	0.0	comment_123652	True	1	0	GreenDeal	nl	2021-10-22T12:37:18+02:00
comment_62767	616	In favor	Ik sta achter uw visie over een sterkere en hechtere Unie, maar dan wel bekrachtigd door een Europese Grondwet die gesteund wordt door minimaal een 2/3 meerderheid van de Europeanen.	0.0	comment_62767	True	0	0	GreenDeal	nl	2021-07-27T00:49:22+02:00
comment_131442	137083	In favor	Eens met het voorstel om in C-budgetten per vierkante meter te werken.	0.0	comment_131442	True	1	0	GreenDeal	nl	2021-11-02T10:11:29+01:00
comment_568	668	In favor	De reden waarom er zoveel plastics bestaan is ook doordat er zoveel verschillende toepassingen en kostprijzen aan vast hangen. Enkele soorten plastic kiezen zal helpen, maar bijvoorbeeld een verpakking in één soort materiaal bevoordelen zal meer effect hebben. Want nu bestaan verpakkingen vaak uit 3-4 verschillende fracties (hout, ijzer, plastic ...). Ik moet volgens mij niet uit leggen dat dat moeilijker te recycleren valt.	0.0		False	2	0	GreenDeal	nl	2021-04-20T18:03:09+02:00
comment_5995	392	In favor	"Ik zou het graag nog aanvullen met de raad om zo weinig mogelijk plastic kleding te dragen. 
promoot natuurlijke materialen in kleding. Katoen, Wol, Linnen, hennep,... 
Het wassen van plastic kleding zorgt ook al voor microplastics in ons afvalwater."	0.0	comment_5995	True	0	0	GreenDeal	nl	2021-05-10T01:04:20+02:00
comment_769	689	In favor	goed idee maar ik denk dat de keuze van steden beter kan worden overgelaten aan de EU ik zie bijvoorbeeld Amsterdam als stad maar deze stad kan je niet op een doorlopend spoor bereiken waardoor de treinen daar om moeten keren en dus om moeten rijden. veder denk ik dat deze maatschappij een standaard rails moet aanleggen in de gehele EU zodat de treinen niet gewisseld hoeven te worden.	0.0	comment_769	True	2	0	GreenDeal	nl	2021-04-21T12:40:52+02:00
comment_245851	278225	Against	de situatie betreffende de klimaatcrisis en de nu al zichtbare gevolgen daarvan laten een voorzichtige en geleidelijke aanpak niet meer toe. Het is hoog tijd voor een drastische en snelle transitie, gebaseerd op een eerlijke en sociale verdeling van de lasten. Het blijven vooropstellen van het economisch dogma en de steeds verdere honger naar energie en consumptie is niet meer houdbaar	0.0	comment_245851	True	1	0	GreenDeal	nl	2022-04-02T15:44:55+02:00
comment_5120	1152	In favor	klopt, ik zou zelfs zeggen dat dit zelfs verplicht moet worden. maar dan ook producten uit eigen streek, en zo min mogelijk soja (meer en meer allergieën hierdoor)	0.0	comment_5120	True	0	0	Health	nl	2021-05-09T18:45:32+02:00
comment_46036	98	In favor	Ik ben het eens met dit idee. De samenleving is aan het digitaliseren en ik ben van mening dat dit een slechte ontwikkeling is voor iedereen. Voor volwassen vervaagt de grens tussen thuis en werk door het thuiswerken door de coronacrisis en sommige werkgevers willen dit zo houden. Daarnaast is het slecht voor de kinderen die opgroeien in een wereld waarin alles digitaal is, waardoor ze liever op hun telefoon, laptop of Ipad zitten in plaats van lekker buiten te spelen. 	0.0	comment_46036	True	0	0	Health	nl	2021-06-30T10:47:14+02:00
comment_212488	47059	Against	"Ik ben hier sterk op tegen! Ten eerste gaat dit in tegen humanitaire grondrechten van zelfbeschikking. Dit geldt des te meer bij verplichte vaccinatie van gezonde mensen, vooral kinderen en jongeren, die nauwelijks risico lopen op een ernstig verloop van de ziekte, maar wel het meest last zullen krijgen van evt. nog onbekende langtermijn bij-effecten van de vaccinaties.
Ten tweede muteert het Coronavirus heel snel. We zouden afhankelijk worden van telkens nieuwe vaccinaties.
Ten derde zorgen juist de vaccinaties voor een selectiedruk op het virus om te muteren in de richting van varianten die de vaccinatieverdediging kunnen ontwijken."	0.0	comment_212488	True	0	0	Health	nl	2022-02-13T17:26:07+01:00
comment_163650	169655	In favor	heel goed voorstel, de woonkost voor mensen met beperking in een voorziening is ook ontoereikend om een zinvol leven te kunnen leiden volgens het Europese recht voor mensen met beperking	0.0	comment_163650	True	1	0	Health	nl	2021-11-29T15:18:47+01:00
comment_2596	217	In favor	"Inclusief de productie van vaccins, zou ik zeggen: Niet meer door bedrijven met een winstoogmerk, maar door een Europees nonprofit-instituut, dat op deze manier goede, betrouwbare, goedkope, onmiddellijk leverbare vaccins kan produceren, voor heel Europa.
Net zoals Dr. Salk een vaccin voor polio had ontwikkeld, in een Amerikaans overheidsinstituut, zonder winstoogmerk; en nadat het ontwikkeld was heeft hij het patent ook vrijgegeven zodat het voor de hele mensheid beschikbaar was. Zo kunnen wij ook onze vaccins ontwikkelen, in plaats van nog langer afhankelijk te zijn van onbetrouwbare multinationals die het ook enkel maar voor de centen doen ..."	0.0	comment_2596	True	0	0	Health	nl	2021-05-01T16:20:18+02:00
comment_46037	519	In favor	Ik vind dit een goed idee. Het zal een rookvrije generatie creëren, waar iedereen zijn of haar voordeel mee haalt. Dat is een wereld waar we naartoe zouden moeten werken. Dit idee zal daar zeker een grote bijdrage in hebben. 	0.0	comment_46037	True	0	0	Health	nl	2021-06-30T10:56:17+02:00
comment_33961	824	In favor	Ik ben het hier mee eens. Het is een probleem dat mensen steeds eerder ziek zijn en dus ook een steeds groter deel van hun leven zorg nodig hebben. Dit zal zorgen voor hogere ziektekosten en een gemiddeld lagere kwaliteit van leven. Al helemaal in de huidige tijd van vergrijzing.	0.0	comment_33961	True	0	0	Health	nl	2021-06-14T15:10:14+02:00
comment_204734	86791	In favor	Ik hou van de suggestie.	0.0	comment_204734	True	2	0	Health	nl	2022-02-07T16:22:36+01:00
comment_222817	86791	In favor	Met de huidige superdiversiteit waarbij de bevolking alsmaar heterogener wordt wat betreft thuistaal, is efficiënte communicatie levensbelangrijk. Dat geldt bij uitstek voor wat betreft gezondheidsaangelegenheden.	0.0	comment_222817	True	1	0	Health	nl	2022-02-19T11:30:15+01:00
comment_33368	26731	In favor	"De Belgische Vereniging voor een Stabiel, Natuurlijk Uur is helemaal akkoord met deze visie. 
Een natuurlijk uur betekent: de tegemoetkoming aan het noodzakelijke comfort van velen.
Wij vragen de EU om het geheel te coördineren tussen de lidstaten en terug te plaatsen op de EU-agenda."	0.0	comment_33368	True	1	0	Health	nl	2021-06-11T18:04:57+02:00
comment_176221	259	In favor	Inderdaad als we de pandemie willen indijken zal er een betere samenwerking moeten zijn tussen de lidstaten van de eu. Er zal een duidelijker vaccinatieplan moeten zijn en ook een betere contacttracing en testing  En in alle lidstaten dezelfde aanpak .  	0.0		False	1	0	Health	nl	2021-12-13T23:35:26+01:00
comment_193546	137750	In favor	Een heel goed idee.	0.0	comment_193546	True	3	0	Health	nl	2022-01-21T19:37:54+01:00
comment_193516	32473	In favor	Een heel goed idee.	0.0	comment_193516	True	2	0	Economy	nl	2022-01-21T18:56:59+01:00
comment_163384	130	In favor	Ik zou graag nog iets meer onderbouwing zien. Maar een belasting op transacties van minder dan een procent zou een uitstekende manier zijn om de financiële sector te dwingen de reëele economie omhoog te trekken.	0.0	comment_163384	True	0	0	Economy	nl	2021-11-28T23:29:52+01:00
comment_8170	113	In favor	"goed idee, maar ik zou het bedrag niet in fiat geven, maar in een vorm van een digitale token.
dit om het sluizen van geld naar andere landen tegen te gaan, dat het lokaal blijft. goed voor de lokale economie.
dat het bedrag enkel kan uitgegeven worden aan basisbehoeftes, ( eten, huur, energie, enz).
en niet naar het buitenland via western union, of naar een verslaving van eender welke soort ."	0.0		False	0	0	Economy	nl	2021-05-11T08:47:52+02:00
comment_187969	624	In favor	"Ik denk dat dit een goede eerste stap is maar dat het helaas niet zo simpel is als alleen legaliseren het heeft dan namelijk nog steeds een stigma dat in Nederland in eider geval resulteert in het weg pesten van bordelen door gemeenten om dat ze graag willen laten zien dat ze om vrouwen hun ""waardigheid"" geven en daardoor is het steeds moeilijker om als prostituee te beginnen op een legale manier verder verbindt de gemeente vaak zeer weinig waarde aan prostitueren waardoor het helaas soms de eerste keuze is voor nieuwe infrastructuur iets wat de lokale prostituees niet ten goede komt omdat ze daardoor in een keer geen legale  werkplek meer hebben en tegen de tijd dat de rechter er iets over zegt is het al te laat "	0.0	comment_187969	True	0	0	Economy	nl	2022-01-09T13:49:38+01:00
comment_193447	137133	In favor	Een heel goed idee.	0.0	comment_193447	True	1	0	EUInTheWorld	nl	2022-01-21T18:43:10+01:00
comment_6934	142	In favor	Ik ben voor een eventueel leger, maar zie dan wel graag dat deze wordt gecombineerd met maatschappelijke diensten en wederopbouw. Dus NGO's en ontwikkelingssamenwerking moeten erbij worden betrokken. Een leger dat kan vechten moet ook kunnen opbouwen. Daarvoor is die expertise gelukkig al aanwezig binnenin Europa. Een Europees leger moet absoluut deze kwaliteiten bij zijn organisatie betrekken. We hebben in Europa dus ook een civiel leger nodig. Daarbij graag ook een leger dat bestaat uit burgers in uniform, op dezelfde manier zoals het Duitse leger. Daarbij ook graag gelet op het recht om orders te weigeren vanwege gewetensbezwaren, ook zoals in het Duitse leger.	0.0		False	0	0	EUInTheWorld	nl	2021-05-10T13:23:16+02:00
comment_33298	2213	Against	Het is juist nodig om meer en betere banden met de Russische federatie aan te gaan. Ook voor de energietransitie is er geen goed alternatief.	0.0		False	0	1	EUInTheWorld	nl	2021-06-11T16:02:57+02:00
comment_2155	107	In favor	Heel positief idee omdat het een goede samenleving voor de armere landen will bereiken, maar het is wel een vorm van neo-kolonialisme als men alles moet doen zoals wij dat willen en goed vinden. Wellicht kunnen er minimale normen voor bijv arbeidsomstandigheden, loon, kinderarbeid en inspraak (vakbonden)  worden vastgesteld die internationaal zijn goedgekeurd niet alleen volgens EU normen, dat doet op dit moment het de Internationale Organisatie voor Arbeid. Zo kun je ook denken aan de Wereldgezondheidsorganisatie voor gezondheidsnormen. 	0.0		False	0	0	EUInTheWorld	nl	2021-04-27T21:22:14+02:00
comment_5118	554	In favor	"Akkoord Stephaan de unanimiteitsregel is serieuze hinderpaal om een daadkrachtig beleid te kunnen voeren.
Maar m.i . is vooral een totale visie nodig waar men op lange termijn naar toe wil gaan met de EU en dit in een voortdurend veranderende wereld. Ik heb daartoe enkele ideeën ingediend:
Love/Hate the European Union. in categorie Overige 
En in deze rubriek ""EU in the world"":
Europe: In pursuit of happiness
Centers of excellence in Science and Education
Utopia:  Worldwide Union of Democracies. 
A global cooperation to solve global problems.
Hoe gaat het anders nog met jou?
mvg "	0.0	comment_5118	True	0	0	EUInTheWorld	nl	2021-05-09T18:44:17+02:00
comment_83458	85537	In favor	Wanner Servië op een bepaald moment voldoet aan alle voorwaarden die van wezenlijk belang zijn voor toetreding tot de huidige EU mag  het land wat mij betreft toe treden.  In het kader van vrede en veiligheid en vooral economische stabiliteit moet dat op den duur kunnen. 	0.0	comment_83458	True	1	0	EUInTheWorld	nl	2021-09-02T14:27:09+02:00
comment_17327	299	In favor	Inderdaad een europees leger is meer dan noodzakelijk. De verwijzingen naar de USA storen mij niet, onze afhankelijkheid van de USA stoort mij veel meer. Hier is denkwerk te verrichten hoe zo'n europees leger er moet uitzien zonder de grote naties voor het hoofd te stoten. Het embrio bestaat al in de vorm van het eurocorps.	0.0	comment_17327	True	0	0	ValuesRights	nl	2021-05-21T16:59:45+02:00
comment_152857	587	In favor	Nagyon helyes.	0.0	comment_152857	True	0	0	ValuesRights	nl	2021-11-19T12:07:59+01:00
comment_69236	7174	Against	De EU is geen land, dus je kan geen burger van de EU zijn.	0.0	comment_69236	True	0	0	ValuesRights	nl	2021-08-08T16:31:57+02:00
comment_81413	41119	In favor	Inderdaad is correct informeren essentieel!	0.0	comment_81413	True	4	0	ValuesRights	nl	2021-08-30T19:55:16+02:00
comment_193515	41119	In favor	Een heel goed idee.	0.0	comment_193515	True	2	0	ValuesRights	nl	2022-01-21T18:54:16+01:00
comment_222851	41119	In favor	Esperanto bestaat en functioneert. Men kan het daglicht niet ontkennen.	0.0	comment_222851	True	3	0	ValuesRights	nl	2022-02-19T11:35:18+01:00
comment_83095	41219	In favor	"De huidige taalregel van de EU is onrealistisch: iedere EU-burger zou naast zijn moedertaal (of de officiële of opgelegde versie daarvan: NIET ALLE talen van EU-burgers zijn officiele EU-taal!) nog 2 andere officiële EU-talen moeten kennen. Dat garandeert zelfs nog niet, dat iedereen iedereen begrijpt in de EU!
Bovendien is die regel niet realistisch in de praktijk: ik ben zelf Belg. België heeft 3 officiële talen: Nederlands, Frans en Duits. Als iedere Belg naast zijn moedertaal (of de officieel opgelegde versie daarvan) nog de twee andere officiële talen van België zou spreken, dan zouden alle Belgen elkaar verstaan. Ik kan u verzekeren dat dit absoluut NIET het geval is!
Met Esperanto was het probleem al ruim 100 jaar opgelost geweest, terwijl iedereen zijn moedertaal kon blijven koesteren."	0.0	comment_83095	True	7	0	ValuesRights	nl	2021-09-01T19:04:18+02:00
comment_83062	42935	In favor	"Ik ben het helemaal eens met uw voorstel.  De EU heeft absoluut nood aan een neutrale, gemakkelijk te leren taal. Esperanto is daar speciaal voor ontworpen. Alleen met die taal zal binnen de EU iedereen met iedereen kunnen communiceren, en ook in de rest van de wereld wordt Esperanto op prijs gesteld voor zijn uitzonderlijke kwaliteiten. 
Esperanto heeft vooral Europese woordstammen, maar veel van die stammen worden nu al in veel nationale talen gebruikt, en de taal is dan ook populair in veel andere landen en werelddelen.
Mi plene subtenas la proponon kaj estas entuziasma uzanto de la internacia lingvo Esperanto, el kiu ankaŭ EU-aj civitanoj rajtu profiti."	0.0	comment_83062	True	3	0	ValuesRights	nl	2021-09-01T18:41:34+02:00
comment_122959	70825	In favor	Yes, in eliminating drugs	0.0	comment_122959	True	0	0	ValuesRights	nl	2021-10-21T20:14:13+02:00
comment_15154	77	In favor	Hellemaal mee eens, dit is noodzakelijk voor welke vorm van vooruitgang dan ook in de EU	0.0	comment_15154	True	1	1	ValuesRights	nl	2021-05-19T13:36:20+02:00
comment_149161	152329	In favor	Ik ben een van de 1,7 miljoen Europese burgers die de ICE ONE OF US heeft ondertekend : Ik wil een Europa die de zwakste mensen respecteert.  🙂 	0.0	comment_149161	True	26	0	ValuesRights	nl	2021-11-16T16:04:52+01:00
comment_155893	152329	In favor	Beschaving begint bij het respecteren van mensenrechten, met als eerste het recht op leven, geboren of ongeboren!	0.0		False	18	2	ValuesRights	nl	2021-11-22T14:28:29+01:00
comment_165463	152329	In favor	"Hierover zou geen discussie moeten zijn. Het is een zaak van leven en dood. De overheid is de beschermer van het leven van haar burgers. Al het andere is anarchie of tirannie. ""De tirannie verdrijven, die mij mijn hart doorwondt""."	0.0	comment_165463	True	6	0	ValuesRights	nl	2021-11-30T19:50:28+01:00
comment_168797	152329	In favor	Als bioloog weet ik dat ik ieder nieuw leven begint als zaadcel en eicel versmelten. Dat is ook zo bij ons mensen en vanaf dat moment is die persoon EEN VAN ONS en beschermwaardig. Elk land (of samenwerkingsverband van landen) die dat niet erkent is geen rechtsstaat voor alle burgers (zie Universele Verklaring van de Rechten van de Mens) en verliest daarmee elk gezag.	0.0	comment_168797	True	2	0	ValuesRights	nl	2021-12-03T11:33:04+01:00
comment_147313	145037	In favor	"In oorsprong is de taal gepland om de vrede te dienen: een gemakkelijk te leren taal, waarmee mensen met verschillende moedertalen en culturen ​elkaar kunnen begrijpen. Vrede is ook het doel van de EU. 
Ik steun ten volle dit voorstel.
Origine la lingvo estas planita por akiri pacon: facile lernebla lingvo, per kiu homoj kun malsamaj gepatraj lingvoj kaj kulturoj povas kompreni unu la aliajn. Paco estas ankaŭ la celo de EU.
Mi plene subtenas ĉi tiun proponon."	0.0	comment_147313	True	7	0	ValuesRights	nl	2021-11-15T12:14:43+01:00
comment_150811	145037	In favor	Als jonge EU-burger sta ik volledig achter dit voorstel. Meer dan ooit is gelijkheid tussen verschillende nationaliteiten erg belangrijk, zeker om internationaal beter overeen te komen. Volgens de huidige EU-taalpolitiek krijgen sommigen steeds een voorkeursbehandeling, terwijl anderen niet lijken te bestaan. Esperanto biedt hier minstens een deel van de oplossing voor het probleem. En het is nog eens een logische, regelmatige taal ook!	0.0	comment_150811	True	7	0	ValuesRights	nl	2021-11-17T23:33:46+01:00
comment_193514	145037	In favor	Een heel goed idee.	0.0	comment_193514	True	3	0	ValuesRights	nl	2022-01-21T18:53:09+01:00
comment_17329	117	In favor	Uiteraard moet corruptie volledig uitgebannen worden binnen de EU en in zijn lidstaten.	0.0	comment_17329	True	0	0	ValuesRights	nl	2021-05-21T17:10:29+02:00
comment_3735	1188	In favor	"Beste Lajos, 
De Europese Unie is weinig consequent en slagvaardig met betrekking tot het euro-dissidente gedrag van Polen en Hongarije. Ik ben het volledig eens met je constatering, en door jou voorgestelde maatregelen."	0.0	comment_3735	True	1	0	ValuesRights	nl	2021-05-09T11:26:06+02:00
comment_225754	254369	In favor	Het is onbegrijpelijk dat er in Europa een taal is die door 10 miljoen burgers wordt gesproken en die niet officieel is. Is dit een beslissing van het Europa van de staten of het Europa van de burgers?	0.0	comment_225754	True	0	0	ValuesRights	nl	2022-02-20T09:42:54+01:00
comment_83063	42934	In favor	Ik ga helemaal akkoord met uw voorstel, dat grote voordelen kan bieden aan ALLE EU-burgers, zowel op het gebied van communicatie als op economisch en cultureel vlak.	0.0	comment_83063	True	3	0	ValuesRights	nl	2021-09-01T18:46:32+02:00
comment_12511	920	In favor	Er zijn bovendien meerdere ideeën over hetzelfde onderwerp met vrijwel identieke standpunten.	0.0		False	1	0	Digital	nl	2021-05-15T20:17:32+02:00
comment_193480	150021	In favor	Een heel goed idee.	0.0	comment_193480	True	0	0	Digital	nl	2022-01-21T18:45:20+01:00
comment_12498	10871	In favor	Ik ben het er mee eens, maar alleen als het identificeren veilig kan door middel van een onafhankelijk en privacy-bewust systeem, ook in verband met identiteitsdiefstal. Ook zou dit niet nodig moeten zijn voor elk soort social media, dit hangt natuurlijk af van wat er wordt bedoeld met 'social media'. 	0.0	comment_12498	True	0	0	Digital	nl	2021-05-15T19:30:33+02:00
comment_192193	217406	Against	Als je vooruitgang wil in het Europese asielbeleid, moet je de drempel niet nog verder verlagen maar verhogen.	0.0	comment_192193	True	0	0	Democracy	nl	2022-01-19T12:15:19+01:00
comment_75967	56299	In favor	"Het mag nog iets verder: een transnationale kandidatenlijst bij de verkiezingen, zoals bepleit door Leonie Martin. Alleen nationale kandidaten vormen ook zo'n te overwinnen ""barrier"". 
Waarschijnlijk het best  te combineren met gelijktijdige verkiezingsdagen voor alle landen."	0.0		False	3	1	Democracy	nl	2021-08-19T13:55:49+02:00
comment_76990	56299	In favor	Het wordt hoog tijd dat we iets doen aan het democratisch tekort in de Europese Unie. Op naar een Unie die van en voor haar burgers is.	0.0	comment_76990	True	1	1	Democracy	nl	2021-08-21T15:16:26+02:00
comment_139626	143589	In favor	Helemaal mee eens !	0.0	comment_139626	True	1	0	Democracy	nl	2021-11-08T19:18:04+01:00
comment_172030	67	Against	Alle ideeën over aanpassing van de bestuurlijke inrichting en zeggenschap zijn prematuur. Als er geen consensus komt over de politieke inhoud en mate, reikwijdte en einddoel van politieke integratie, zullen lidstaten hun positie niet opgeven. Dus geen andere vorm zonder duidelijkheid over de politieke inhoud en de ontwikkeling daarvan.	0.0	comment_172030	True	0	0	Democracy	nl	2021-12-06T19:11:02+01:00
comment_193843	220243	In favor	Helemaal mee eens. 	0.0	comment_193843	True	0	0	Democracy	nl	2022-01-22T13:08:15+01:00
comment_99925	103325	In favor	Goed punt ! Het gaat altijd om machtspolitiek zoals Duitsland en Frankrijk aantonen. Ook in een federatie zal dat het geval zijn. Mooi voorbeeld is Merkel die klaagt over het Duitse federale systeem. Meer centralisatie = meer machtsstrijd = minder democratie.	0.0	comment_99925	True	0	0	Democracy	nl	2021-09-26T16:15:41+02:00
comment_82370	62767	In favor	Helemaal mee eens !	0.0	comment_82370	True	0	0	Democracy	nl	2021-08-31T20:08:12+02:00
comment_139823	143585	In favor	Helemaal mee eens!	0.0	comment_139823	True	0	0	Democracy	nl	2021-11-08T20:32:04+01:00
comment_212389	10208	In favor	"Ik denk dat referenda bij belangrijke beleidsveranderingen heel erg helpen om het gevoel ""mee te tellen"" in de democratie, te bevorderen. Ook de mogelijkheid om als burgers een initiatief te nemen voor een referendum helpt daarbij!"	0.0		False	1	0	Democracy	nl	2022-02-13T16:41:53+01:00
comment_51250	53	Against	Slecht idee, we hebben een president nodig zoals in het Duitse systeem, niet zoals in Frankrijk.	0.0	comment_51250	True	0	0	Democracy	nl	2021-07-07T10:56:22+02:00
comment_8821	585	In favor	Er is een europese partij die dat wil; Volt. Deze partij is in alle EU lidstaten actief en zelfs in de UK.	0.0		False	0	0	Democracy	nl	2021-05-11T16:58:54+02:00
comment_189619	212653	In favor	Helemaal mee eens !	0.0	comment_189619	True	0	0	Democracy	nl	2022-01-12T14:40:47+01:00
comment_81416	44420	In favor	De Europese autoriteiten dienen te investeren in wetenschappelijk onderzoek over Esperanto. Ze kunnen dit m.i. best laten uitvoeren door wetenschappelijke instanties die GEEN rechtstreekse band hebben met de Esperanto-organisaties. Anders zal men achteraf beweren dat het onderzoek niet objectief gebeurd is. 	0.0		False	4	0	Democracy	nl	2021-08-30T20:03:17+02:00
comment_193513	44420	In favor	Een heel goed idee.	0.0	comment_193513	True	0	0	Democracy	nl	2022-01-21T18:51:08+01:00
comment_112995	117778	In favor	Het is goed om alle misstanden aan de kaak te stellen. Ongetwijfeld zullen anderen stellen dat een EU-federatie alle problemen kan oplossen. Maar in werkelijkheid zullen uw landgenoten moeten kiezen voor een regering die het volk dient. Sterkte toegewenst !	0.0	comment_112995	True	0	0	Democracy	nl	2021-10-11T11:03:35+02:00
comment_171370	179686	Against	De sociale ongelijkheid in de EU is vergelijkbaar met die in de USA. Sociale gelijkheid in de EU zou een structurele enorme financiële transfer tussen lidstaten tot gevolg hebben. Daar zullen de belastingbetalers in de betalende lidstaten niet mee akkoord gaan. Lidstaten moeten door economische hervormingen en corruptiebestrijding primair zelf hun economie versterken. Daarnaast helpt de EU al door structuurfondsen en hulpprogramma's.	0.0	comment_171370	True	0	0	Democracy	nl	2021-12-06T13:56:27+01:00
comment_16575	332	In favor	In ieder geval is het beslissen bij eenparigheid veel te log om vooruit te kunnen gaan waar en wanneer het nodig is. Hier laat ik in het midden of een eenvoudige mederheid in alle omstandigheden moet volstaan om te kunnen beslissen.	0.0	comment_16575	True	1	1	Democracy	nl	2021-05-20T18:17:17+02:00
comment_75868	55	In favor	"Prima idee !
Bij de allereerste Europese verkiezingen vroeg ik me al af waarom ik op een landgenoot moest stemmen. Bij nationale verkiezingen ben ik toch ook niet verplicht om een stadgenoot te kiezen?"	0.0	comment_75868	True	0	1	Democracy	nl	2021-08-19T11:55:50+02:00
comment_112432	55	Against	"Het voorstel is een oplossing voor een probleem dat nauwelijks bestaat. Politieke partijen in Brussel zijn Europees ‘ gelijkgeschakeld’ en hebben een Europees-breed programma dat voorbijgaat aan nationale verschillen. Dat programma bepaalt de inzet van de partijleden.
Veel burgers in lidstaten hebben weinig waardering voor EU-parlementariërs juist omdat zij ervaren dat hun belangen niet behartigd worden."	0.0	comment_112432	True	0	1	Democracy	nl	2021-10-10T16:09:32+02:00
comment_95107	16798	In favor	Helemaal eens!	0.0	comment_95107	True	3	0	Democracy	nl	2021-09-18T19:52:33+02:00
comment_181666	16798	In favor	Dit voorstel krijgt mijn volledige steun, want dit zou het taalniveau van ons, jongeren, enorm ten goede komen.	0.0	comment_181666	True	2	0	Democracy	nl	2021-12-29T16:35:34+01:00
comment_123586	128868	Against	Lees de ontstaansgeschiedenis van het Europese Hof dat zelf aan de macht is gekomen via een juridische coup. De bevoegdheden van het Hof zijn gelimiteerd maar het Hof zoekt vaak meer ruimte en dat heeft ook in andere landen tot kritiek geleid. Daardoor maakt het Hof zich zelf kwetsbaar.	0.0	comment_123586	True	0	0	Democracy	nl	2021-10-22T11:15:35+02:00
comment_192194	217410	Against	Een extra laag in de Brusselse bureaucratie leidt niet tot een hogere participatie van burgers in EU-landen.	0.0	comment_192194	True	0	0	Democracy	nl	2022-01-19T12:20:23+01:00
comment_181633	15976	In favor	Klopt inderdaad, het is gewoonweg discriminerend om EU-publicaties enkel en alleen in het Engels te schrijven. Zo zijn Engelstaligen steeds in het voordeel, en alle andere EU-burgers steeds in het nadeel. Het zijn dan namelijk steeds dezelfde burgers die een serieuze taalinspanning moet leveren, en de Engelstaligen bijna nooit ... Zij verwachten op den duur dat iedereen, overal ter wereld Engels kan spreken, wat natuurlijk volstrekt onmogelijk en onaanvaardbaar is.	0.0	comment_181633	True	1	0	Democracy	nl	2021-12-29T16:32:40+01:00
comment_72504	63988	Against	"Crises in de EU worden veroorzaakt door fundamentele verschillen tussen lidstaten en die verschillen nemen toe. Daarom werkt ‘onze size for all’ vaak niet, zie monetair beleid.
Verdere ontwikkeling zou moeten plaatsvinden op basis van samenwerking tussen lidstaten."	0.0	comment_72504	True	0	0	Democracy	nl	2021-08-14T10:34:23+02:00
comment_139591	143584	In favor	Mee eens, het bestaan van die regel dwingt lidstaten om hun uiterste best te doen om consensus te bereiken. Daarom is daadwerkelijk gebruik van de regel vaak niet nodig.	0.0	comment_139591	True	0	0	Democracy	nl	2021-11-08T18:51:14+01:00
comment_17262	13281	In favor	De democratische controle vergroten via het EP, volledig akkoord. Evenwel kunnen de burgers hier ook een rol in spelen, via op te richten burgerfora. Ik meen in ieder geval dat de burger meer betrokken moet worden, ook buiten de huidige conferentie.	0.0	comment_17262	True	0	0	Democracy	nl	2021-05-21T16:32:42+02:00
comment_73097	74581	Against	De democratie is gefundeerd in de lidstaten die 99% van hun budget zelfstandig beheren. De resterende 1% wordt in Brussel herverdeeld en de lidstaten moeten vetorecht houden omdat het geld is van hun belastingbetalers. De eigen fiscale ruimte voor de EU moet zeer beperkt blijven.	0.0	comment_73097	True	1	0	Democracy	nl	2021-08-15T15:08:28+02:00
comment_94513	95536	In favor	Een terechte oproep aan de EU om meer rekening te houden met de lokale cultuur en geschiedenis. Het ‘ verlichte’  Brussel neigt soms naar moreel imperialisme.	0.0	comment_94513	True	0	0	Democracy	nl	2021-09-17T19:05:27+02:00
comment_173086	183052	Against	"Meer macht voor het Europees Parlement ? De Europese Raad bekritiseerde gisteren het Parlement omdat dit in strijd met de afspraken 322 nieuwe ambtenaren aantrekt waardoor de jaarlijkse kosten stijgen tot meer dan 2 miljard euro.
Het Parlement weigert bovendien, in strijd met de afspraken , naar de burgers verantwoording af te leggen over de noodzaak. Ik wil niet vertegenwoordigd worden door zo'n instelling !"	0.0	comment_173086	True	0	0	Democracy	nl	2021-12-08T15:38:24+01:00
comment_111574	115831	Against	Extinctie radicalisering en extremisme. Democratie vereist kennis van de materie en een redelijke afweging van verschillende belangen en middelen. 	0.0	comment_111574	True	0	0	Democracy	nl	2021-10-09T18:53:01+02:00
comment_113720	13863	Against	"Belastingbeleid moet nationale bevoegdheid blijven met vetorecht.
Meerderheidsbesluitvorming leidt tot uitholling en een transferunie."	0.0		False	1	0	Democracy	nl	2021-10-11T17:06:55+02:00
comment_126655	11203	In favor	Helemaal mee eens ! Datzelfde geldt ook voor het Europees Parlement dat zich als een activistisch bolwerk gedraagt.	0.0	comment_126655	True	0	0	Democracy	nl	2021-10-26T13:24:26+02:00
comment_99760	101311	In favor	Een terechte oproep aan ‘waardengemeenschap’ EU.	0.0	comment_99760	True	0	0	Democracy	nl	2021-09-26T11:54:44+02:00
comment_16574	277	In favor	Ik ga akkoord met dit voorstel.	0.0	comment_16574	True	0	0	Democracy	nl	2021-05-20T17:58:48+02:00
comment_73957	75274	Against	"Gelukkig is voor verdere integratie unanimiteit vereist.
Bent u bang dat meer landen willen uittreden als uw voorstellen worden uitgevoerd ?"	0.0	comment_73957	True	0	0	Democracy	nl	2021-08-16T22:57:39+02:00
comment_124150	8515	Against	De EU bestaat niet zonder lidstaten. De EU kan daarom niet (fiscaal) autonoom worden. 	0.0		False	0	1	Democracy	nl	2021-10-22T17:15:34+02:00
comment_95442	34357	In favor	Helemaal mee eens. Stop in ieder geval definitief met toetredingsonderhandelingen met Turkije.	0.0	comment_95442	True	1	0	Democracy	nl	2021-09-19T12:28:18+02:00
comment_139855	143590	In favor	Mee eens,  het Europese Hof heeft in het verleden via een juridische coup zelf de macht gegrepen en die macht uitgebouwd.	0.0	comment_139855	True	2	0	Democracy	nl	2021-11-08T20:40:20+01:00
comment_230044	2022	Against	Ik kan me voorstellen dat mensen er zo over denken maar zwart-wit denken heeft nog nooit iemand geholpen. Onderdeel zijn van een groter geheel heeft meer voordelen dan nadelen. Welk voordeel verwacht je van zogenaamde onafhankelijkheid?	0.0	comment_230044	True	0	0	Democracy	nl	2022-02-21T17:01:11+01:00
comment_111541	115898	In favor	Helemaal mee eens. Er moet ook tijd zijn om onderling overleg te plegen met andere lidstaten. Het subsidiariteitsbeginsel wordt nu te weinig serieus genomen.	0.0	comment_111541	True	0	0	Democracy	nl	2021-10-09T18:35:38+02:00
comment_121441	93952	In favor	Terechte vraag ! Toegevoegd zou kunnen worden ; de EU heeft ook de sterkste militaire lidstaat verloren . De paradox is dat desondanks gekozen wordt voor verdere centralisatie, een duidelijke vlucht naar voren.	0.0	comment_121441	True	0	0	Democracy	nl	2021-10-20T11:19:51+02:00
comment_192226	217415	Against	Recent kwam er zware kritiek op het Parlement omdat dit tegen alle afspraken in het aantal administratieve functies met 322 wil verhogen. Deze ongerechtvaardigde verspilling leidt ertoe dat de het door de belastingbetaler te betalen budget stijgt tot 2063 miljoen euro. Dat is bijna 3 miljoen euro per MEP per jaar. Zo'n Parlement vertegenwoordigd niet de wil van het volk.	0.0	comment_192226	True	0	0	Democracy	nl	2022-01-19T13:07:45+01:00
comment_175594	188663	In favor	Bron voor meer informatie: (in het Nederlands) https://www.transparency.nl/nieuws/2016/02/lobbyregister-eu/	0.0	comment_175594	True	1	0	Democracy	nl	2021-12-12T23:22:50+01:00
comment_17228	48	In favor	Ik ben volledig akkoord dat Europa in die richting moet evolueren.	0.0	comment_17228	True	0	1	Democracy	nl	2021-05-21T16:18:32+02:00
comment_215724	218165	In favor	"Veto's zijn zaken waar zuinig mee omgesprongen zou moeten worden. Welke zaken wel of niet per veto beslist kunnen worden zou in zijn totaliteit herzien moeten worden. Nu is het nog goeddeels gebaseerd op de oorspronkelijke afspraken. Met een EU van 27 landen moet dat hele stelsel heroverwogen worden.
Dus of het in zijn totaliteit afgeschaft moet worden weet ik niet, maar zeker wel voor een heel groot deel."	0.0		False	0	0	Democracy	nl	2022-02-15T16:08:47+01:00
comment_99397	102863	In favor	Goede analyse en een goed voorstel. De lidstaatparlementen moeten meer tijd krijgen voor de toets en de gelegenheid krijgen om met andere parlementen te overleggen .	0.0	comment_99397	True	0	0	Democracy	nl	2021-09-25T19:05:06+02:00
comment_73096	74515	Against	Divergentie is het gevolg van de te snelle introductie van de euro waardoor landen hun munt niet meer kunnen devalueren. Convergentie door hervorming, versterking van het concurrentievermogen en terugbrengen van staatsschuld komt in sommige landen niet van de grond door zwak politiek bestuur. Normaal gesproken komt een gezamenlijke munt tot stand als economieën voldoende geconvergeerd zijn. In de EU is die volgorde omgedraaid en dat werkt niet.	0.0	comment_73096	True	0	0	Democracy	nl	2021-08-15T14:49:29+02:00
comment_87781	89234	In favor	Helemaal mee eens !	0.0	comment_87781	True	0	0	Democracy	nl	2021-09-09T18:48:59+02:00
comment_69140	257	In favor	Prima analyse, bottom-up op is voorwaarde voor democratie	0.0	comment_69140	True	0	0	Democracy	nl	2021-08-08T12:38:02+02:00
comment_101546	104545	In favor	Goed idee, versterk de rol van de nationale parlementen.	0.0		False	0	0	Democracy	nl	2021-09-28T20:43:19+02:00
comment_225788	753	In favor	Molt bona idea. Als Europa dicht bij zijn burgers wil staan, moet Europa minderheidstalen veel meer waarderen en natuurlijk niet bijdragen aan hun marginalisering of verdwijning.	0.0	comment_225788	True	0	0	Education	nl	2022-02-20T09:52:34+01:00
comment_6980	1122	In favor	Hoe sneller hoe beter! Vooral in blauw met goud kleuren!	0.0		False	1	0	Education	nl	2021-05-10T13:53:54+02:00
comment_10004	260	In favor	Een goed idee. Esperanto is volgens wat ik daarover gehoord heb een gemakkelijke taal, te leren op enkele jaren. Er is dan ook in het dagonderwijs geen enkele andere taal nog nodig dan de eigen moedertaal. Zo komen er heel wat lesuren vrij die aan andere zaken besteed kunnen worden.	0.0		False	13	0	Education	nl	2021-05-13T11:11:18+02:00
comment_65044	260	In favor	Via proefprojecten is bewezen dat het Esperanto heel geschikt is als basis om andere talen aan te leren. Op die manier kan meertaligheid in Europa bevorderd worden. Daarbij is het Esperanto neutraal waardoor er geen culturele opdringerigheid plaats kan vinden zoals op dit ogenblik via het Engels volop aan de gang is.  	0.0		False	10	0	Education	nl	2021-07-30T16:22:46+02:00
comment_77254	260	In favor	Esperanto is neutraal en relatief gemakkelijk te leren. Daarenboven vergemakkelijkt ze ook het aanleren van andere talen. Esperanto heeft haar waarde als internationaal communicatiemiddel al 130 jaar bewezen.	0.0	comment_77254	True	8	0	Education	nl	2021-08-22T19:27:17+02:00
comment_204700	260	In favor	Ik hou van de suggestie.	0.0	comment_204700	True	1	0	Education	nl	2022-02-07T16:16:19+01:00
comment_38811	114	In favor	Naast verplichte vaardigheden zoals kleding maken, groenten telen, schilderen van houtwerk, muren, meubels, hout bewerken, metaal bewerken, vuur maken en andere praktische vaardigheden lijkt het mij essentieel om 18+ te scholen op het gebied van psychologie en communicatievaardigheden. Hoe zit jij als mens in elkaar? hoe ga jij om met je emoties? hoe gedraagjij je in bepaalde situaties. het behandelen van verschillende praktische psychologische modellen als de RET, gedragspsychologie, NLP, gesprekstechnieken volgens verschillende methodes (dus eclectisch). Verschillende soorten gesprekken (slecht nieuws gesprek, sollicitatiegesprek). Vaardigheden waar elk mens in de rest van zijn/haar leven wat aan heeft. Want in elke situatie heb je met andere mensen te maken en in heel je leven blijf je communiceren met de mensen om je heen. Vandaar dat het essentiële, praktische vaardigheden zijn die in ieder geval nu in het Nederlandse onderwijs systeem ontbreken.	0.0	comment_38811	True	0	0	Education	nl	2021-06-20T12:49:53+02:00
comment_89596	23893	In favor	Ik verwelkom dit initiatief dat ik van ganser harte steun. Ik hoop dat het door de burgers van de EU besproken en goedgekeurd wordt.	0.0	comment_89596	True	7	0	Education	nl	2021-09-12T19:25:55+02:00
comment_89662	23893	In favor	"Ik ondersteun het voorstel om Esperanto te onderwijzen, en daarbij objectief en wetenschappelijk na te gaan wat de resultaten en de effecten van dit onderwijs zijn, in vergelijking met het ""klassieke"" vreemde talenonderwijs."	0.0	comment_89662	True	8	0	Education	nl	2021-09-12T22:50:00+02:00
comment_96229	23893	In favor	Deze bemerking is werkelijk helemaal terecht volgens mij.	0.0	comment_96229	True	6	0	Education	nl	2021-09-20T23:59:45+02:00
comment_58180	39238	In favor	Door kinderen al op de basisschool Esperanto te leren, kunnen zij op jonge leeftijd kennis maken met kinderen van andere Europese landen en zullen zij meer begrip krijgen voor andere ideeën die Europa rijk is. Dit zal bijdragen tot vrede in Europa en in de wereld.  	0.0	comment_58180	True	7	0	Education	nl	2021-07-18T17:19:38+02:00
comment_81379	39238	In favor	Uitstekend idee!	0.0	comment_81379	True	5	0	Education	nl	2021-08-30T19:38:16+02:00
comment_83129	39238	In favor	Een goed voorstel: als de jeugd al weet wat Esperanto eigenlijk is, en er de voordelen van kent, is er een goede kans, dat ook hun ouders de voordelen ervan beseffen en ook die voordelen wensen en eisen voor hun kinderen IN HET VOORDEEL VAN IEDEREEN.	0.0	comment_83129	True	7	0	Education	nl	2021-09-01T19:26:11+02:00
comment_76066	51	In favor	"Een buitengewoon goed idee. Persoonlijk zou ik het heel interessant vinden mijn Noord-Brabant in de Nederlanden (😊) nog beter te verbinden met de andere delen van Brabant die in Belgie liggen. Daarnaast of daarbij nieuwe aandacht voor de Brabantse taal (of talen?)
Ik herhaal: Goed idee om de Europese Regio's naar boven te halen, dan kan veel oud zeer uit het oude en verdeelde Europa eindelijk verwerkt worden.
Het in stukken gehakte Brabant kan een mooie Europese Regio worden: Regio Brabant dus. 
Ik zing: ""Toen hertog Jan van Brabant, te peerd (= paard) galant, te Antwerpen reed door de straten, had hij dit niet beter kunnen wensen"" "	0.0		False	0	0	OtherIdeas	nl	2021-08-19T16:28:31+02:00
comment_4362	1783	Against	'Koninklijke' families zijn in mijn ogen de grootste uitkeringsfraudeurs van elke natie. Hun vermogens zijn over de eeuwen heen over de ruggen van hun onderdanen vergaard, die niets meer waren dan horigen en lijfeigenen: Halve of hele slaven. Dat zij nu nog steeds miljoenen staatssteun krijgen, voor niets meer dan ceremoniële functies, is voor mij onverteerbaar, en amoreel. Ik ben fervent voorstander van een rigoureuze opruiming van dit soort parasitaire instituten. 	0.0		False	0	0	OtherIdeas	nl	2021-05-09T15:00:16+02:00
comment_63955	17955	In favor	De enige taal die respect heeft voor andere talen, neutraal is en als basis voor het aanleren van die talen kan dienen is het Esperanto. Europa zou daar veel baat bij hebben.	0.0	comment_63955	True	5	0	OtherIdeas	nl	2021-07-29T11:21:09+02:00
comment_77256	17955	In favor	Esperanto is neutraal en relatief gemakkelijk te leren. Daarenboven vergemakkelijkt ze ook het aanleren van andere talen. Waarom moeilijk als het makkelijk kan. 	0.0		False	3	0	OtherIdeas	nl	2021-08-22T19:41:15+02:00
comment_81412	17955	In favor	De erkenning van Esperanto door de Europese autoriteiten is de basis en het begin van de ontwikkeling  van verdere mogelijkheden die deze taal kan krijgen voor drastische kostenbesparing en bevordering van werkelijke gelijkheid van taalrechten voor alle EU-burgers.	0.0	comment_81412	True	3	0	OtherIdeas	nl	2021-08-30T19:50:45+02:00
comment_193579	17955	In favor	Een heel goed idee.	0.0	comment_193579	True	2	0	OtherIdeas	nl	2022-01-21T19:40:46+01:00
comment_36631	11650	In favor	"Een eenheidstaal voor Europa hoeft geen betoog.
Een praktische manier om het in te voeren is om in alle landen die willen meedoen, op school als 2de taal diezelfde eenheidstaal aan te leren. De hoofdtaal blijft natuurlijk de moedertaal zodat de kwaliteit van de lessen bewaard blijft. Hierdoor blijft de lokale cultuur, literatuur, ... bewaard.
Als Belg kan ik daar over getuigen. Wij hebben 3 officiële talen in ons land (Nederlands, Frans, Duits) en veel Belgen kennen ook Engels en sommige zelfs nog Spaans.
Het zou voor onze leerlingen (Vlaanderen) gemakkelijker zijn om zeker Nederlands en de EU-taal te leren. Wie interesse heeft kan nog steeds meerdere talen leren appreciatie van vreemde culturen/ literatuur/ …
Ook de landelijke administratie hoeft daar niet onder te lijden. Officiële documenten zoals wetten, politiereglement, … moet in de regionale taal + de EU-taal verschijnen (voor Vlaanderen dus Nederlands + EU-taal). Op termijn kan hiervoor zelfs de regionale taal wegvallen."	0.0	comment_36631	True	4	0	OtherIdeas	nl	2021-06-17T19:39:12+02:00
comment_36532	1022	Against	"Ik zou helemaal geen voorstander van de procedure voor deze landen zijn zorg eerst dat de huidige al toegetreden landen de grondbeginselen van democratie rechtstaat en zeg maar algemeen de europese normen en waarden ook gaan handhaven los eerst de corruptie en vriendjespolitiek op die in de al toegetreden landen alweer floreert alvorens de volgende emmer met corruptie open te trekken.
Ja de IT sector in de oekraine is een sterke maar voor elke IT specialist met een goed salaris die goed kan integreren zou je ook een berg laag opgeleide er bij krijgen die ver onder onze salarissen de arbeidsmarkt tot 2 modaal nog verder kapot maakt voor onze gewone werknemers!"	0.0	comment_36532	True	0	0	OtherIdeas	nl	2021-06-17T15:47:40+02:00
comment_83236	7185	In favor	Dat heeft Peter Weide heel duidelijk en kort geformuleerd. Ik ben het helemaal eens met zijn standpunt.	0.0	comment_83236	True	3	0	OtherIdeas	nl	2021-09-01T21:36:47+02:00
comment_193612	5399	In favor	Een heel goed idee.	0.0	comment_193612	True	1	0	OtherIdeas	nl	2022-01-21T19:44:05+01:00
comment_65110	50429	In favor	Indien de Europese hymne  voortaan in het Esperanto zou gezongen worden, zou dit een hoge symbolische waarde hebben. Alle lidstaten zouden dan op een neutrale en gelijkwaardige manier geëerd worden.	0.0	comment_65110	True	8	0	OtherIdeas	nl	2021-07-30T17:07:06+02:00
comment_181667	13828	In favor	Dit voorstel krijgt mijn volledige steun, want dit zou ook het taalniveau van ons, jongeren, enorm ten goede komen.	0.0	comment_181667	True	1	0	OtherIdeas	nl	2021-12-29T16:36:37+01:00
comment_83231	11137	In favor	"Ik sta helemaal achter dit voorstel.
Esperanto is speciaal ontworpen om te dienen als ieders tweede taal: zo gemakkelijk mogelijk, slechts 5 klinkers, een vaste plaats voor het woordaccent, een woord bestaat uit stammen, die stammen komen praktisch alleen uit Europese talen, er zijn geen uitzonderingen, er moet zo weinig mogelijk vanbuiten geleerd worden, enz.
Waarom het moeilijk maken, als het gemakkelijk kan?"	0.0	comment_83231	True	2	0	OtherIdeas	nl	2021-09-01T21:08:00+02:00
