id	id_prop	alignment	comment	depth	thread_id	last_comment_in_thread	upvote	downvote	Topic	lan	time
comment_26403	119	Against	Prawo do osiedlenia się w UE (wiza) powinno być wydawane na podstawie kwalifikacji, wieku i innych czynników, dobranych tak, aby migrant mógł stać się wartościowym Europejczykiem, nie na podstawie miejsca urodzenia / zamieszkania. Osobiście wolę przyjąć profesora Fizyki z najbiedniejszego państwa świata, niż złodziejaszka z najbogatszego	0.0	comment_26403	True	0	4	Migration	pl	2021-06-03T09:09:46+02:00
comment_26402	1751	Against	Zachowajmy pewien poziom merytoryczny dyskusji, a nie bawimy się w przedszkole z propozycjami tego typu	0.0	comment_26402	True	0	0	Migration	pl	2021-06-03T09:03:23+02:00
comment_26401	874	Against	Unia Europejska się starzeje, potrzebni są nam nowi, młodzi, wykwalifikowani pracownicy z innych regionów świata. Zgadzam się, że migracja powinna być kontrolowana w taki sposób, aby służyć europie i jej mieszkańcom, ale nie można zgodzić się na ksenofobiczne podejście, zwłaszcza w przypadku deficytu pracowników wielu sektorów. To, że ktoś urodził się w innym miejscu świata naprawdę nie oznacza, że nie może zostać Europejczykiem po zamieszkaniu tu.	0.0	comment_26401	True	0	0	Migration	pl	2021-06-03T08:59:54+02:00
comment_79102	77353	In favor	Popieram powyższe pomysły. Najważniejsze, żeby nieustająco uświadamiać ludzi, szczególnie młodych, że ich wybory konsumenckie mają wpływ na środowisko.	0.0	comment_79102	True	0	0	GreenDeal	pl	2021-08-25T09:33:07+02:00
comment_600	740	In favor	Za każdą pracę w tym staż powinno należeć się wynagrodzenie.	0.0		False	3	0	Economy	pl	2021-04-20T19:43:16+02:00
comment_218692	250570	In favor	Słuszna inicjatywa, dialog na wszystkich szczeblach jest niezwykle istotny. Poszanowanie demokratycznych wartości i wysłuchanie stron przeciwnych zawsze może doprowadzić do osiągnięcia  porozumienie.	0.0	comment_218692	True	0	0	Economy	pl	2022-02-17T11:15:36+01:00
comment_18285	13836	In favor	ETUC ma rację pisząc o potrzebie zmian metody zarządzania gospodarczego w UE. Dodałbym tylko konieczność rozszerzenia wpływu uczestników całego systemu na podejmowane decyzje zwłaszcza przez instrumenty demokracji przemysłowej. Szczególną rolę przypisałbym do negocjacji zbiorowych i trójstronnego dialogu społecznego.	0.0	comment_18285	True	4	0	Economy	pl	2021-05-24T13:31:05+02:00
comment_51162	34554	Against	"Nie masz racji.
Kosowo było zamieszkane już głownie przez inną ludność niż Serbowie to raz. 
Dwa Krym był tylko częściowo zamieszkany przez Rosjan, którym na dodatek niekoniecznie się spieszyło do bycia poddanymi Rosji a już szczególnie Putina."	0.0	comment_51162	True	0	0	EUInTheWorld	pl	2021-07-06T20:51:08+02:00
comment_22343	82	In favor	Ogólnie się zgadzam. Przydałby się unuwersalny język do komunikacji w takich Stanach Zjednoczonych Unii Europejskiej. Moim zdaniem nie powinien to być angielski, ponieważ jest to język USA oraz (nie będącej w UE!) Wielkiej Brytanii. Proponowałbym stopniowe wprowadzanie języka esperanto do szkuł, w celu przyszłego uczynienia z niego języka Unii.	0.0		False	0	1	EUInTheWorld	pl	2021-05-28T15:33:14+02:00
comment_184803	401	Against	Siła państw członkowskich UE leży w ich jak najbliższej współpracy w obszarach, w których ich samodzielne działania nie byłyby równie efektywne.	0.0	comment_184803	True	0	0	ValuesRights	pl	2022-01-04T16:07:05+01:00
comment_26321	407	In favor	"Uważam, że pomysł wspólnego systemu migracyjnego jest świetny i powinien być jak najbardziej wprowadzony, jednak proponowałbym zastosowanie modelu zbliżonego do modelu Australijskiego - system ten jest bardzo rozbudowany, ale w skrócie:
Moglibyśmy stworzyć system punktowy, w którym do uzyskania statusu rezydenta UE potrzebna byłaby określona ilość punktów. Punkty byłyby przyznawane za wiek, edukację, itp. w zależności od tego, co eksperci uznają za stosowne. Dodatkową zaletą wprowadzenia systemu opartego na systemie Australijskim byłaby możliwość wprowadzenia odpowiednika Australijskich wiz sponsorowanych - dodatkowe punkty mogłyby być przyznawane kandydatom, którzy zobowiązują się do przepracowania pierwszych n lat na terenie danego Państwa członkowskiego. Taka zmiana pozwoliłaby na lepszą selekcję migrantów, uzupełnienie luk na Europejskim rynku pracy oraz wsparciu zrównoważonego rozwoju wspólnoty. Dodatkowo dzięki wizom sponsorowanym kraje członkowskie zachowałyby elastyczność"	0.0	comment_26321	True	1	1	ValuesRights	pl	2021-06-03T01:48:20+02:00
comment_159425	41119	In favor	"W Polskich szkołach nic się nie mówi o esperanto. A przecież to jest język, który powstał w Polsce!
= = = = = = = 
Nenio estas dirita pri Esperanto en polaj lernejoj. Kaj tamen ĝi estas lingvo, kiu originis en Pollando!"	0.0	comment_159425	True	5	0	ValuesRights	pl	2021-11-24T21:43:48+01:00
comment_217174	41119	In favor	Esperanto i esperantyści na to zasługują.	0.0	comment_217174	True	2	0	ValuesRights	pl	2022-02-16T17:16:48+01:00
comment_26320	149	Against	Zdecydowanie nie zgadzam się z pomysłem, aby interesy indywidualnych Państw miały być stawiane na pierwszym miejscu. Unia to wspólnota, często musimy w pewnym aspekcie zrobić ukłon ku naszym przyjaciołom, aby odwdzięczyli się tym samym trzy głosowania później. Ponadto biorąc pod uwagę globalny wyścig, który trwa obecnie nie stać nas na kłótnie między sobą.	0.0	comment_26320	True	0	1	ValuesRights	pl	2021-06-03T01:39:52+02:00
comment_26317	1986	In favor	Zgadzam się całkowicie, dodałbym tylko ewentualny zapis o tym, aby obywatele Unii Europejskiej mieli prawo do podejmowania wszystkich zawodów w każdym Państwie członkowskim na tych samych zasadach, co obywatele tego państwa. Obecnie niestety, np. w mojej ojczystej Polsce osoba bez polskiego obywatelstwa nie może pracować w policji (nawet, jeśli spełni wszystkie inne wymagania). Moim zdaniem powinno się to zmienić - pozwólmy Europejczykom pracować dla Europy	0.0	comment_26317	True	1	0	ValuesRights	pl	2021-06-03T01:35:21+02:00
comment_66331	43726	In favor	"Ciekawy pomysł ale żeby ci się udało trzeba cierpliwości, jeśli ją masz prędzej czy później osiągniesz cel. Warto porozmawiać z grupami, które opisujesz. Pomyśl o debacie :)
Pozdrawiam"	0.0	comment_66331	True	0	0	ValuesRights	pl	2021-08-01T23:59:33+02:00
comment_161833	152329	In favor	"Godność człowieka wymaga szacunku dla życia od poczęcia do naturalnej śmierci. 
Wymaga szacunku dla kobiet, zapewnienia im wsparcia w trudnym czasie ciąży i połogu, w tym dostępu do pełnej i rzetelnej informacji dotyczącej ciąży."	0.0	comment_161833	True	16	0	ValuesRights	pl	2021-11-26T16:44:01+01:00
comment_166915	152329	In favor	Zabierając głos i podejmując działania w obronie ludzkiego życia od poczęcia do naturalnej śmierci, nie rozpowszechniamy ideologii, nie jest to też postulat wypływający z wiary. To jest rzeczywistość – obrona człowieka, zwłaszcza nienarodzonego, wynika z ogólnohumanistycznych wartości, na których oparta jest Unia Europejska.	0.0	comment_166915	True	5	0	ValuesRights	pl	2021-12-02T08:53:18+01:00
comment_167247	152329	In favor	"Jako naukowiec zajmujący się biologią komórki nie widzę jakiegokolwiek powodu, żeby uważać, że ludzkie życie zaczyna się w jakimkolwiek innym momencie niż moment zapłodnienia komórki jajowej. Od tego momentu rozpoczyna się ciągła, nieprzerwana kaskada procesów biochemicznych która prowadzi do rozwoju organizmu i przemiany te trwają aż do śmierci. Współczesna nauka wyraźnie pokazuje, że nawet na poziomie wczesnego embrionu czy na etapie życia płodowego mamy do czynienia z autonomiczną istotą ludzką z gatunku Homo sapiens, posiadającą własny, niepowtarzalny genom. Jakiekolwiek twierdzenie, że życie ludzkie zaczyna się po kilkunastu tygodniach rozwoju płodowego, czy na przykład po urodzeniu, są oparte na niczym nie uzasadnionych osobistych przekonaniach niektórych jednostek. 
Współczesna Europa powinna stać nie tylko na straży poszanowania uniwersalnych wartości i godności każdego człowieka, ale musi uwzględniać racjonalne prawdy jakie przynosi współczesna nauka. "	0.0	comment_167247	True	6	0	ValuesRights	pl	2021-12-02T12:08:29+01:00
comment_173416	152329	In favor	Bardzo potrzebna inicjatywa.	0.0	comment_173416	True	0	0	ValuesRights	pl	2021-12-09T12:18:37+01:00
comment_49051	44089	In favor	"Uważam, że aborcja jako zabieg medyczny ratujący zdrowie i życie kobiety może być uznana za prawo człowieka. 
Natomiast aborcja jako zabieg mający na celu jedynie pozbycie się dziecka - w Polsce jest na to słowo: skrobanka - jest oczywiście sprzeczny z podstawowym prawem człowieka: prawem do życia. 
Nie wiem co dokładnie uchwalono. Jeżeli chodziło o ochronę życia i zdrowia kobiety to OK, jeżeli o to drugie to jest to absolutny skandal."	0.0		False	0	0	ValuesRights	pl	2021-07-05T01:19:08+02:00
comment_51155	33628	In favor	Dziecko powinny widzieć, co to jest korekta płci, homoseksualizm i inne po pierwsze dla tego, że w życiu przynajmniej zobaczą je u innych, jeśli same nie będzie należało do osób LGBTQI+. W nieuświadomionym społeczeństwie szkolnym uczniowie poddają mniejszości seksualne przemocy psychicznej.	0.0	comment_51155	True	0	0	ValuesRights	pl	2021-07-06T20:35:50+02:00
comment_51158	30066	In favor	Zgadzam się. Działania Polski i Węgier przeciw osobą LGBTIQ+ powinny wiązać się z konsekwencjami.	0.0	comment_51158	True	0	0	ValuesRights	pl	2021-07-06T20:46:40+02:00
comment_171238	642	In favor	To genialne rozwiązanie, życzę powodzenia przyjacielu!	0.0	comment_171238	True	0	0	ValuesRights	pl	2021-12-06T02:06:18+01:00
comment_49053	67	In favor	"Europejczycy potrzebują króla, prezydenta - kogoś z kim mogliby się utożsamiać.
Kogoś kogo sami wybiorą lub wylosują z wybranych kandydatów w powszechnych wyborach. 
Kogoś kto przejmie uprawnienia przewodniczącego Rady Europejskiej. 
Kogoś do kogo rządzący innymi krajami będą mogli w końcu ""zadzwonić"" by wiedzieć co zrobi UE, jakie jest jej stanowisko itd. 
Kogoś kto będzie mógł uwolnić z aresztu każdego człowieka w dowolnym w kraju UE albo go ułaskawić. 
To na początek. 
Potem te uprawnienia można rozszerzyć.
W dzisiejszych czasach nie ma problemu by opracować sposób prezentacji kandydatów znoszący bariery językowe itp. "	0.0	comment_49053	True	0	0	Democracy	pl	2021-07-05T01:55:53+02:00
comment_218660	250538	In favor	Słuszny postulat, obniży koszty utrzymania UE	0.0	comment_218660	True	0	0	Democracy	pl	2022-02-17T11:08:18+01:00
comment_98044	1862	In favor	Całkowicie się zgadzam	0.0	comment_98044	True	0	1	Democracy	pl	2021-09-23T21:56:49+02:00
comment_50129	45213	Against	Jestem przeciwny stosowaniu - w przypadku usług publicznych - jakiegokolwiek oprogramowania, którego kod nie jest w pełni otwarty. 	0.0		False	0	0	Democracy	pl	2021-07-05T22:00:50+02:00
comment_24058	19076	In favor	Najważniejsze wydaje się edukacja , nie indoktrynacja na niwie krajów europejskich. Jednak ważniejszym od edukacji jest wolność poszczególnych, jednostek, parafii, państw w podejmowaniu decyzji. Zagrożeniem wydaje się socjalizm europejski, który wyklucza ochronę i rozwój mieszkańców wpychając Ich w zagrożenie dechrystianizacji i oparcie życia o konsumpcjonizm, nihilzm, egoizm.	0.0	comment_24058	True	0	0	Democracy	pl	2021-06-01T07:17:55+02:00
comment_130419	44420	In favor	Potwierdzam, że esperanta da się nauczyć o wiele szybciej od angielskiego i innych języków. Nauczyłem się sam w pół roku, a wielkiego talentu do języków nie mam, bo po hiszpańsku, ponoć bardzo łatwym, nie mówię mimo uczenia się go już kilka lat w szkole.	0.0	comment_130419	True	7	0	Democracy	pl	2021-10-30T21:51:22+02:00
comment_217768	44420	In favor	Popieram z pełnym przekonaniem.	0.0	comment_217768	True	0	0	Democracy	pl	2022-02-16T23:02:52+01:00
comment_87089	85075	In favor	Uważam stopniowe wdrażanie esperanta za dobry pomyśł.	0.0	comment_87089	True	6	0	Education	pl	2021-09-08T17:36:18+02:00
comment_51152	260	In favor	Skoro potrafię się posługiwać językiem esperanto po roku samodzielnej nauki (która głównie polegała na używaniu esperanckiego internetu), a jakimś asem języków nie jestem, to myślę, że po szkole podstawowej młodzież powinna władać nim na o wiele wyższym poziomie, niż obecnie angielskim. 	0.0		False	7	0	Education	pl	2021-07-06T20:27:27+02:00
comment_159424	260	In favor	"To jest rzeczywiście śmieszne, że UE używa jako podstawowego języka kraju który nie należy już do UE ;-)  Esperanto jest oparte o różne języki europejskie, ale nie należy do żadnego konkretnego narodu.
Efektive estas ridinde, ke EU uzas landon, kiu ne plu apartenas al EU kiel ĉefan lingvon ;-) Esperanto baziĝas sur diversaj eŭropaj lingvoj sed ne apartenas al iu aparta nacio."	0.0	comment_159424	True	2	0	Education	pl	2021-11-24T21:40:25+01:00
comment_217702	260	In favor	"(pl) Tak, esperanto byłoby pierwszym językiem, który poznawałyby dzieci, zaraz po swoim ojczystym.
(eo) Jes, Esperanto estus la unua lingvo, kiun infanoj lernus, tuj post sia gepatra lingvo. "	0.0	comment_217702	True	1	0	Education	pl	2022-02-16T22:29:18+01:00
comment_5681	2163	In favor	Dobry pomysł!	0.0	comment_5681	True	1	0	Education	pl	2021-05-09T22:01:02+02:00
comment_188530	2163	In favor	Bardzo dobry pomysl!	0.0	comment_188530	True	0	0	Education	pl	2022-01-09T23:29:25+01:00
comment_216217	23893	In favor	To wspaniała propozycja, która wzmocniłaby jedność Unii i nasze wspólne wartości - poszanowanie narodowej i językowej różnorodności Europy przy jednoczesnym ułatwieniu komunikacji pomiędzy Europejczykami z różnych stron.	0.0	comment_216217	True	2	0	Education	pl	2022-02-15T23:05:03+01:00
comment_87088	39238	In favor	Moi rodzice powiedzieli mi, że w szkołach w Polsce przynajmniej wspominano o esperancie. Obecnie już tak nie jest.	0.0		False	5	0	Education	pl	2021-09-08T17:28:39+02:00
comment_159358	39238	In favor	"Uważam,że uzycie esperanta jako  języka pomocniczego przed nauką  języków naturalnych to świetny pomysł!
Mi pensas, ke uzi Esperanton kiel helplingvon antaŭ ol lerni naturajn lingvojn estas bonega ideo!"	0.0	comment_159358	True	5	0	Education	pl	2021-11-24T21:27:00+01:00
comment_18292	13843	In favor	"Wielu młodych ludzi doświadcza niepewności. To ona sprawia, że młodzi ludzie dłużej mieszkają z rodzicami, że nie decydują się na posiadanie potomstwa. Trzeba jej przeciwdziałać. Zdecydowano się na ""Gwarancje dla młodzieży"" i to krok w dobrym kierunku. Niestety, ""Gwarancje"" częściowo przyczyniają się do tej niepewności, ponieważ w wielu wypadkach umożliwiają finansowanie ze środków publicznych pracy atypowej, pozbawiającej stabilności w zatrudnieniu. Należy to wyeliminować. Środki publiczne powinny przyczyniać się do poprawy jakości życia, a nie jej obniżania."	0.0	comment_18292	True	2	0	Education	pl	2021-05-24T13:56:47+02:00
comment_22211	9279	In favor	"Całkowicie zgadzam się z propozycją. Po lekcjach esperanta w szkole poziom władania językiem byłby komunikatywny nawed u słabszych uczniów. Nie musieliby oni uczyć się na pamięć nie pełniących żadnej użytecznej funkcji wyjądków. Skąd wiem? Zacząłem się uczyć się tego języka z internetu i po roku już władam nim komunikatywnie, a co dopiero jakbym uczył się, jak postuluje autor propozycji, od przedszkola! 
Na początku trzeba ludzi o esperancie poinformować, a tym, którzy o nim już słyszeli, uświadomić, że to nie żart, nie tylko hobby (chociaż jako hobby również polecam, nawet jeśli pozostanie, jak jest) a poważna sprawa.
Vivu Esperanto!"	0.0	comment_22211	True	9	0	Education	pl	2021-05-28T13:26:49+02:00
comment_1226	105	In favor	Wszystkie formy kształcenia na uczelniach publicznych (państwowych) powinny być bezpłatne dla studentów. Włączając w to również studia podyplomowe i zaoczne.	0.0	comment_1226	True	2	0	Education	pl	2021-04-22T13:03:29+02:00
comment_198107	223280	In favor	Proponuję utworzenie nowego programu wymiany uczniowskiej, na bazie istniejącego programu Erasmus+, ale w wymianie będą brać udział państwa spoza UE. Takie państwa jak np. Chiny, Tajlandia, Rosja, Korea Południowa, Japonia, USA itp. Jest to ogromna szansa, bowiem już w młodym wieku będziemy w stanie poznać inną kulturę. Państwa Azji przodują w nowoczesnych technologiach, które są niezbędne do funkcjonowania współczesnego świata. Szkolenie młodzieży w tych państwach mogłoby przynieść ogromne rezultaty. Także kwestia związana z polityką. Taka wymiana, sprawiłaby dodatkowe zacieśnianie więzi z innymi państwami.	0.0	comment_198107	True	0	0	Education	pl	2022-01-27T14:21:59+01:00
comment_28694	2479	Against	Język angielski nie jest obecnie językiem żadnego państwa w Unii Europejskiej. Ja proponuję stopniowo wprowadzać, a później wykorzystać jako język Unii, podobnie jak pisani powyżej, Lingvo Internacia Esperanto. 	0.0		False	1	0	OtherIdeas	pl	2021-06-05T18:57:25+02:00
comment_121375	126160	In favor	 😇 	0.0	comment_121375	True	1	0	OtherIdeas	pl	2021-10-20T09:33:40+02:00
comment_49049	245	Against	"Różne wersje ""jednego"" Europa przerabiała w przeszłości już niejednokrotnie. 
Zawsze niezwykle krwawo i wyniszczająco. 
Nie potrzebujemy jednego języka,  a już absolutnie nie angielskiego, który jest bardzo nieprecyzyjny. No i  jeszcze trzeba byłoby odpowiedzieć na pytanie - którą jego wersję!? 
W dzisiejszych czasach tłumaczenie nie jest problemem.
Zamiast jednego języka powinniśmy raczej dążyć do tego by każdy z oficjalnych języków UE był równo traktowany w każdym kraju UE, żeby żaden nie był dyskryminowany (jak np. grecki w Niemczech itd.) ani ludzie posługujący się takim językiem. "	0.0		False	1	0	OtherIdeas	pl	2021-07-05T01:01:17+02:00
comment_21353	17955	In favor	Jestem jak najbardziej za. Skoro Wielka Brytania wyszła z Unii mamy kolejny powód dla którego język esperanto jest lepszym wyborem. A powody które były wcześniej to prostrza wymowa, ortografia oraz regularna gramatyka, łatwiejsza nawet od hiszpańskiej. Esperanto powienien być, moim zdaniem, wprowadzany stopniowo do szkolnictwa państw europejskich, żeby w przyszłości stał się językiem używanym przez organy UE. Problem hymnu również zostałby natychmiastowo rozwiązany. Esperancka wersja do melodii Ody do Radośći nie jest odą do radości, a odą do Europy, co kolejny, moim zdaniem, plus.	0.0	comment_21353	True	20	0	OtherIdeas	pl	2021-05-27T14:07:45+02:00
comment_47092	27391	In favor	Jako użytkownik języka esperanto mogę potwierdzić, że jest on rzeczywiście bardzo łatwy do nauczenie, w szczególności dla Europejczyków. Sam zacząłem się uczyć w roku 2020 i poziom komunikatywny opanowałem od tamtego czasu zupełnie sam. Gdyby wprowadzono esperanto od szkół podstawowych, to myślę, że bardzo szybko będzie można wprowadzać skomplikowane pojęcia na późniejszych etapach. 	0.0	comment_47092	True	8	0	OtherIdeas	pl	2021-07-01T15:35:13+02:00
comment_7730	5399	In favor	Esperanto jest częścią europejskiej kultury i tożsamości. To język przyszłości - zwięzły i bardzo logiczny, który fascynował przede wszystkim tych, którzy kochają otwartość, wolność i demokrację. Istnieją już narzędzia do darmowej nauki online, ale brakuje promocji i dobrej woli na szczeblu europejskim. Na całym świecie są miliony osób mówiących w tym języku, warto i do nich dotrzeć z pokojową ideą Unii Europejskiej.	0.0		False	14	1	OtherIdeas	pl	2021-05-10T18:29:41+02:00
comment_20014	5399	In favor	Esperanto jest językiem neutralnym narodowościowo i kulturowo. Wprawdzie nie posiada ideowego programu, ale implicite promuje głęboko zakotwiczone postawy antynacjonalistyczne, antyrasistowskie, równościowe i demokratyczne. Wbrew opinii krytyków esperanto jest neutralny także pod względem struktury, ponieważ upowszechnia rdzenie słowne, pochodzące z języków indoeuropejskich, które są najbardziej rozpowszechnione i które zachowują wystarczające podobieństwo i jednoznaczność, by stanowić bazę neutralnego języka. Żadna znacznie rozpowszechniona grupa języków takich własności nie ma, ponieważ tak, jak języki sino-tybetańskie, składają się one z homonimów i jednosylabowych rdzeni, które nie zachowują jednoznaczności. Esperanto jest żywy, ulega przemianom, posiada własną literaturę i historię. Wielu jego użytkowników posługuje się nim jako pierwszym językiem. Jest to język łatwo przyswajalny i niezwykle plastyczny, przez co każdy może wykształcić własne formy, nie tracąc na zrozumiałości.	0.0		False	8	0	OtherIdeas	pl	2021-05-25T22:26:47+02:00
comment_217801	5399	In favor	Potwierdzam, nauka esperanta jest bardzo łatwa.	0.0	comment_217801	True	2	0	OtherIdeas	pl	2022-02-16T23:12:54+01:00
comment_127777	44519	In favor	"Prowadzona obecnie przez instytucje UE polityka zatrudnienia oparta na negatywnej selekcji, nieformalnych powiązaniach towarzyskich i nieweryfikowalnych kryteriach sprawiła, że UE traci najlepszych merytorycznie potencjalnych pracowników na rzecz ""Młodych Profesjonalistów"", którzy w toku nieprzejrzystych procedur zostają urzędnikami UE zatrudnionymi na stałe z pominięciem wymaganej dla pozostałych kandydatów procedury, mimo często bardzo niskich umiejętności i braku kierunkowego wykształcenia. EPSO to farsa dla naiwnych ludzi spoza brukselskiego układu. Droga UE, zwłaszcza Komisjo Europejska - plujecie nam w twarz, wasze ""równe traktowanie"" jest kłamstwem. Jednym stawiacie horrendalne wymagania kilku lat doświadczenia zawodowego jako kryterium wejściowe, jednocześnie zatrudniając tych, których lubicie, nie stawiając żadnych wymagań. Dla jednych - kontrakty w agencjach, lata bez stałej umowy, dla merytorycznie gorszych - stanowiska urzędnicze. Mam dowody na podparcie swojej tezy. "	0.0	comment_127777	True	0	0	OtherIdeas	pl	2021-10-27T14:49:44+02:00
comment_49052	44188	Against	Rozumiem jaka idea stoi za Twoim pomysłem, ale niestety na świecie nie ma przykładów sztucznego miasta, które nadawałoby  się do życia dla ludzi. :( 	0.0		False	0	0	OtherIdeas	pl	2021-07-05T01:22:12+02:00
